I2C/I2C.sim/sim_1/behav/xsim/i2c_master_tb.vcd
$date
   Mon May  5 14:56:14 2025
$end
$version
  2019.1
$end
$timescale
  1ps
$end
$scope module i2c_master_tb $end
$var reg 1 ! clk $end
$var reg 1 " reset $end
$var reg 1 # start $end
$var reg 7 $ addr [6:0] $end
$var reg 8 % data [7:0] $end
$var reg 1 & rw $end
$var wire 1 ' sda $end
$var wire 1 ( scl $end
$var wire 1 ) done $end
$var reg 1 * sda_driver $end
$var reg 1 + sda_oe $end
$scope module uut $end
$var wire 1 , clk $end
$var wire 1 - reset $end
$var wire 1 . start $end
$var wire 7 / addr [6:0] $end
$var wire 8 0 data [7:0] $end
$var wire 1 1 rw $end
$var wire 1 ' sda $end
$var wire 1 ( scl $end
$var reg 1 2 done $end
$var reg 3 3 state [2:0] $end
$var reg 3 4 next_state [2:0] $end
$var reg 4 5 bit_count [3:0] $end
$var reg 8 6 shift_reg [7:0] $end
$var reg 1 7 sda_out $end
$var reg 1 8 sda_oe $end
$var reg 1 9 scl_reg $end
$var reg 8 : data_reg [7:0] $end
$var reg 7 ; addr_reg [6:0] $end
$var reg 9 < clk_div [8:0] $end
$var wire 1 = scl_enable $end
$var parameter 3 > IDLE [2:0] $end
$var parameter 3 ? START_C [2:0] $end
$var parameter 3 @ ADDR_C [2:0] $end
$var parameter 3 A ACK_ADDR [2:0] $end
$var parameter 3 B DATA_C [2:0] $end
$var parameter 3 C ACK_DATA [2:0] $end
$var parameter 3 D STOP_C [2:0] $end
$upscope $end
$upscope $end
$enddefinitions $end
#0
$dumpvars
0!
1"
0#
b0 $
b0 %
0&
1'
1(
0)
1*
0+
0,
1-
0.
b0 /
b0 0
01
02
b0 3
b0 4
b0 5
b0 6
17
18
19
b0 :
b0 ;
b0 <
0=
b0 >
b1 ?
b10 @
b11 A
b100 B
b101 C
b110 D
$end
#10000
1!
1,
#20000
0!
0,
#30000
1!
1,
#40000
0!
0,
#50000
1!
1,
#60000
0!
0,
#70000
1!
1,
#80000
0!
0,
#90000
1!
1,
#100000
0!
0"
0,
0-
#110000
1!
1,
b1 <
0=
#120000
0!
0,
#130000
1!
1,
b10 <
0=
#140000
0!
0,
#150000
1!
1,
b11 <
0=
#160000
0!
0,
#170000
1!
1,
b100 <
0=
#180000
0!
0,
#190000
1!
1,
b101 <
0=
#200000
0!
1#
b1010101 $
b10101010 %
0,
1.
b1010101 /
b10101010 0
02
b1 4
#210000
1!
1,
b110 <
0=
#220000
0!
0,
#230000
1!
1,
b111 <
0=
#240000
0!
0#
0,
0.
02
b0 4
#250000
1!
1,
b1000 <
0=
#260000
0!
0,
#270000
1!
1,
b1001 <
0=
#280000
0!
0,
#290000
1!
1,
b1010 <
0=
#300000
0!
0,
#310000
1!
1,
b1011 <
0=
#320000
0!
0,
#330000
1!
1,
b1100 <
0=
#340000
0!
0,
#350000
1!
1,
b1101 <
0=
#360000
0!
0,
#370000
1!
1,
b1110 <
0=
#380000
0!
0,
#390000
1!
1,
b1111 <
0=
#400000
0!
0,
#410000
1!
1,
b10000 <
0=
#420000
0!
0,
#430000
1!
1,
b10001 <
0=
#440000
0!
0,
#450000
1!
1,
b10010 <
0=
#460000
0!
0,
#470000
1!
1,
b10011 <
0=
#480000
0!
0,
#490000
1!
1,
b10100 <
0=
#500000
0!
0,
#510000
1!
1,
b10101 <
0=
#520000
0!
0,
#530000
1!
1,
b10110 <
0=
#540000
0!
0,
#550000
1!
1,
b10111 <
0=
#560000
0!
0,
#570000
1!
1,
b11000 <
0=
#580000
0!
0,
#590000
1!
1,
b11001 <
0=
#600000
0!
0,
#610000
1!
1,
b11010 <
0=
#620000
0!
0,
#630000
1!
1,
b11011 <
0=
#640000
0!
0,
#650000
1!
1,
b11100 <
0=
#660000
0!
0,
#670000
1!
1,
b11101 <
0=
#680000
0!
0,
#690000
1!
1,
b11110 <
0=
#700000
0!
0,
#710000
1!
1,
b11111 <
0=
#720000
0!
0,
#730000
1!
1,
b100000 <
0=
#740000
0!
0,
#750000
1!
1,
b100001 <
0=
#760000
0!
0,
#770000
1!
1,
b100010 <
0=
#780000
0!
0,
#790000
1!
1,
b100011 <
0=
#800000
0!
0,
#810000
1!
1,
b100100 <
0=
#820000
0!
0,
#830000
1!
1,
b100101 <
0=
#840000
0!
0,
#850000
1!
1,
b100110 <
0=
#860000
0!
0,
#870000
1!
1,
b100111 <
0=
#880000
0!
0,
#890000
1!
1,
b101000 <
0=
#900000
0!
0,
#910000
1!
1,
b101001 <
0=
#920000
0!
0,
#930000
1!
1,
b101010 <
0=
#940000
0!
0,
#950000
1!
1,
b101011 <
0=
#960000
0!
0,
#970000
1!
1,
b101100 <
0=
#980000
0!
0,
#990000
1!
1,
b101101 <
0=
